<svg 
 xmlns="http://www.w3.org/2000/svg"
 xmlns:xlink="http://www.w3.org/1999/xlink"
 width="47px" height="34px">
<path fill-rule="evenodd"  fill="rgb(255, 255, 255)"
 d="M31.788,17.034 L47.000,4.009 L47.000,29.865 L31.788,17.034 ZM1.152,0.722 C1.695,0.271 2.388,-0.001 3.142,-0.001 L43.858,-0.001 C44.642,-0.001 45.360,0.295 45.912,0.780 L23.561,19.917 L1.152,0.722 ZM-0.000,29.977 L-0.000,3.896 L15.341,17.037 L-0.000,29.977 ZM23.561,24.078 L29.355,19.116 L45.990,33.148 C45.428,33.674 44.680,34.000 43.858,34.000 L3.142,34.000 C2.351,34.000 1.627,33.698 1.073,33.206 L17.773,19.120 L23.561,24.078 Z"/>
</svg>